{
  "type": "service_account",
  "project_id": "rentavr-1547793042414",
  "private_key_id": "4036cf6ec81664507ce70f7fb974225f27a12d5b",
  "private_key": "-----BEGIN PRIVATE KEY-----\nMIIEvgIBADANBgkqhkiG9w0BAQEFAASCBKgwggSkAgEAAoIBAQCNDnKwO9rgKpCh\n4FUu+PfIHR+WtX4M9pRHeTyY1ljunHEwkbiZ3a182ZfF/E1QYH/hgU3lWN37kVao\ngz2t36Xj5leudqvqoANDRPcpXR8edfu1ZhCAnb/r7JJviFOJ5Sjf01DJNQJBPTXO\nmHl5T2ViOabuOWGgCzYOnIcik04+n/vHZjkp4iUN8i929dJyMHQLqcg39LmHVhJu\nwttz+UgkprdXvSkwntWR+zVQuOOdlUdmVjyeTWIFOTqcP3V4ruwZI9ZnKxWRGtCH\n0YrPASv6MKusw0wRuhYVnlDkEH0fLDKC2o8gb7bJea3m+gTYHi6I1+F7XEMYCc+/\nbJkNE3B/AgMBAAECggEAAb/ETrAiZPCqy3U5Uwf6m4JyeqL5a9F/svjhifrc6YXF\nyMVbWUzHq14UwA8WR2rpETE0srkUL+WqghQJ699zgUVeqm4x5jvwj6YE7mx9h7e+\nHo7BoY1r1AM2KS0y7YbtChiONdr3/okGlG9IH48o0vHyTE8U2BeMulHizCrr1Amk\n34iouPvOwJHCa/k63NERH28og5iNzRxg6rYtW1/c3W/ZHFDY9dwTmmKX3F+JkatU\n2huDWEnQ27XLPIQuqRTZgj5z/2Vh7NnkxeSGibzfFM7LE4WUliHW27ACzHsRpQiZ\nFR/I8C0kAdyAoyifxLqB6sPPQCB0f4TjWc+rV+HvBQKBgQDDmNWo8jmx5piTLv+d\ny5pmuzr+vGOMnuwuMppSjzSl8AthyAJL3MvC56M7fqCZMe1qzwNavjJEbvMvLOOe\nITKPCI0Hx7zh1nshPUK9ESGsqnLq2q/G6dJfpVxemCgZBS4PcaBHumDgkdzuJ/dL\nYovpSA8z+DfX3MkAFDuG3gRbQwKBgQC4ndcnzghrYKrZ83oqKvO0M0cfj1Gu8ivG\npLbmpLnlZDp5xe0VWO0DU5E4KxhYYsUHyr0Ce09yc6V/5+Dkc/rEHmCGGFy230iO\nMmnV0BZ22LRHVKZnvmwF3/8nrrUWqOjvBPvWXj4UeyHInN69DkF1hbzV5ysOM1EQ\nPrwN1Hb8FQKBgQCKNeO8BrU3/Q6Q6iPbd3Q55VERkULyqZWQK1eawPBd1NnmFTNy\nMamVpqJUNuz6cyolT/Q52a2hZ5jVG+4W3bRhF5S4C65vEmRdH3GaMZHO9X5Qb4jH\nkI+D4E/905x52Ywrg4nTRWKRLOClNH5suUzN4YpEmb+z+6HYOXO6oAUKCwKBgAKc\ngPGYMXhLWr9QeVblWqMe4o+ouFAQLtxVchzbEaIUA9u7F/poUpnsca5otaRyaTUO\nAhRp6BrHVfz0K7MvjMl/YIAlEhKoH9+bCPI0Sk0ODabApMXs5JxEqdhG2Vrjsr/G\nw0Up+hjSEQ1EYsYr0HM4HA6ugWZnBWuEZ6aObcxtAoGBAJhbJ+uUOtJSu41dp+Cq\n7w6BIWkieU4JxNzTI2cNrq9W7kM1qXVA8HJYgPRMm+aQLQGmU1c0BvSspe6V301d\npa6uxElpq/BurjMmmgZJuQt0csCM2L6//lsFdoEmXSMtAn9LXd3+fRV8X/Bq/PTH\n7Y0MpUkNbNDVzB6iBk15JBWh\n-----END PRIVATE KEY-----\n",
  "client_email": "the-brix@rentavr-1547793042414.iam.gserviceaccount.com",
  "client_id": "104694979367404038481",
  "auth_uri": "https://accounts.google.com/o/oauth2/auth",
  "token_uri": "https://oauth2.googleapis.com/token",
  "auth_provider_x509_cert_url": "https://www.googleapis.com/oauth2/v1/certs",
  "client_x509_cert_url": "https://www.googleapis.com/robot/v1/metadata/x509/the-brix%40rentavr-1547793042414.iam.gserviceaccount.com"
}
